{
  "tasksActive": [{
      "title": "Smile",
      "priority": 2,
      "description": "Lorem ipsum dolor sit amet, consectetur adipiscing elit, <a href=\"#\">sed do eiusmod</a> tempor incididunt ut labore et dolore magna aliqua."
    },
    {
      "title": "Read a book",
      "priority": 1,
      "description": "Ut enim ad minim veniam, quis nostrud exercitation <strong>ullamco</strong> laboris nisi ut aliquip ex ea commodo consequat."
    },
    {
      "title": "Get a new shoes",
      "priority": 3,
      "description": "Duis aute irure dolor in reprehenderit in voluptate velit esse cillum dolore eu fugiat nulla pariatur."
    },
    {
      "title": "Drink water",
      "priority": 4,
      "description": "Excepteur sint occaecat cupidatat non proident, sunt in culpa qui officia deserunt mollit anim id est laborum."
    },
    {
      "title": "Keep going",
      "priority": 5,
      "description": "Sed ut perspiciatis unde omnis iste natus error sit voluptatem accusantium doloremque laudantium, totam rem aperiam, eaque ipsa quae ab illo inventore veritatis et quasi architecto beatae vitae dicta sunt explicabo."
    }
  ],
  "taskInProgress": [{
      "title": "Look forward",
      "priority": 1,
      "description": "Nemo enim ipsam voluptatem quia voluptas sit aspernatur aut odit aut fugit, sed quia consequuntur magni dolores eos qui ratione voluptatem sequi nesciunt."
    },
    {
      "title": "Take a quick!",
      "priority": 3,
      "description": "Neque porro quisquam est, qui dolorem ipsum quia dolor sit amet, consectetur, adipisci velit, sed quia non numquam eius modi tempora incidunt ut labore et dolore magnam aliquam quaerat voluptatem."
    },
    {
      "title": "Look around!",
      "priority": 5,
      "description": "Ut enim ad minima veniam, quis nostrum exercitationem ullam corporis suscipit laboriosam, nisi ut aliquid ex ea commodi consequatur?"
    },
    {
      "title": "Run fast",
      "priority": 2,
      "description": "Quis autem vel eum iure reprehenderit qui in ea voluptate velit esse quam nihil molestiae consequatur, vel illum qui dolorem eum fugiat quo voluptas nulla pariatur?"
    },
    {
      "title": "Do something in a sort time!",
      "priority": 4,
      "description": "At vero eos et accusamus et iusto odio dignissimos ducimus qui blanditiis praesentium voluptatum deleniti atque corrupti quos dolores et quas molestias excepturi sint occaecati cupiditate non provident, similique sunt in culpa qui officia deserunt mollitia animi, id est laborum et dolorum fuga."
    }
  ],
  "tasksCompleted": [{
      "title": "Take some photos",
      "priority": 1,
      "description": "Et harum quidem rerum facilis est et expedita distinctio."
    },
    {
      "title": "Walk at least 5 kms",
      "priority": 2,
      "description": "Nam libero tempore, cum soluta nobis est eligendi optio cumque nihil impedit quo minus id quod maxime placeat facere possimus, omnis voluptas assumenda est, omnis dolor repellendus. Temporibus autem quibusdam et aut officiis debitis aut rerum necessitatibus saepe eveniet ut et voluptates repudiandae sint et molestiae non recusandae."
    },
    {
      "title": "Go somewhere for a cup of coffee",
      "priority": 5,
      "description": "Itaque earum rerum hic tenetur a sapiente delectus, ut aut reiciendis voluptatibus maiores alias consequatur aut perferendis doloribus asperiores repellat."
    },
    {
      "title": "Think wisely!",
      "priority": 3,
      "description": "Dicit patrioque no eos, te fugit euismod per. At latine voluptua mei."
    },
    {
      "title": "Do slowly.",
      "priority": 4,
      "description": "Quo te laboramus cotidieque, ut eos omnesque urbanitas, ut mel magna ipsum."
    }
  ]
}